[gd_scene load_steps=4 format=2]

[ext_resource path="res://shaders/shadertoy/cineshader_test_wlVGWd.shader" type="Shader" id=1]
[ext_resource path="res://themes/avara_16.theme" type="Theme" id=2]


[sub_resource type="ShaderMaterial" id=1]
shader = ExtResource( 1 )
shader_param/static_color = Color( 1, 0, 0, 1 )
shader_param/dynamic_color0 = Color( 0, 1, 1, 1 )
shader_param/dynamic_color1 = Color( 1, 0, 0.305882, 1 )
shader_param/dynamic = 1.0
shader_param/uv_offset = Vector2( 0.34, 0 )
shader_param/uv_mult = Vector2( 1, 1 )
shader_param/uv_center = Vector2( 0.5, 0.5 )
shader_param/speed = 2.0
shader_param/screen_ratio = 0.586
shader_param/color_multiply = 1.4
shader_param/vignette = 0.489
shader_param/lentille_power = 2.702
shader_param/lentille_strength = 22.695

[node name="MdXyzX" type="Panel"]
material = SubResource( 1 )
anchor_right = 1.0
anchor_bottom = 1.0
theme = ExtResource( 2 )
__meta__ = {
"_edit_use_anchors_": false
}
