[gd_scene load_steps=6 format=2]

[ext_resource path="res://scripts/menu_button.gd" type="Script" id=1]
[ext_resource path="res://themes/avara_16.theme" type="Theme" id=2]
[ext_resource path="res://shaders/shadertoy/cineshader_test_wlVGWd.shader" type="Shader" id=3]

[sub_resource type="ShaderMaterial" id=1]
shader = ExtResource( 3 )
shader_param/static_color = Color( 1, 0, 0, 1 )
shader_param/dynamic_color0 = Color( 0, 0.952941, 1, 1 )
shader_param/dynamic_color1 = Color( 1, 0, 0.607843, 1 )
shader_param/dynamic = 1.0
shader_param/uv_offset = Vector2( 0, 0 )
shader_param/uv_mult = Vector2( 2, 1 )
shader_param/uv_center = Vector2( 0.5, 0.5 )
shader_param/speed = 5.0
shader_param/screen_ratio = 0.1
shader_param/color_multiply = 1.4
shader_param/vignette = 0.6
shader_param/lentille_power = 1.4
shader_param/lentille_strength = 29.787

[sub_resource type="StyleBoxFlat" id=2]

[node name="smart_button" type="Panel"]
material = SubResource( 1 )
margin_right = 1000.0
margin_bottom = 100.0
mouse_default_cursor_shape = 8
theme = ExtResource( 2 )
custom_styles/panel = SubResource( 2 )
script = ExtResource( 1 )
__meta__ = {
"_edit_use_anchors_": false
}
dot_min = 5.0
dot_max = 42.526

[node name="container" type="HBoxContainer" parent="."]
margin_left = 18.0
margin_right = 125.0
margin_bottom = 68.0
__meta__ = {
"_edit_use_anchors_": false
}

[node name="counter" type="Label" parent="container"]
margin_top = 20.0
margin_right = 48.0
margin_bottom = 48.0
text = "9999"
align = 2

[node name="txt" type="Label" parent="container"]
margin_left = 52.0
margin_top = 20.0
margin_right = 112.0
margin_bottom = 48.0
custom_colors/font_color = Color( 0, 0, 0, 1 )
text = "button"
